{
    "basename": "asr-bits_04-d0f89f1",
    "cmd": "lfortran --show-asr --no-color {infile} -o {outfile}",
    "infile": "tests/../integration_tests/bits_04.f90",
    "infile_hash": "1cf82954b9eed57d1f61a7b86cf2aaaf4cb3a8efdf960365bab23692",
    "outfile": null,
    "outfile_hash": null,
    "stdout": "asr-bits_04-d0f89f1.stdout",
    "stdout_hash": "3d61e864f89c98bcb4eff8f409c63109238787dd1c1e128f2b2efa56",
    "stderr": null,
    "stderr_hash": null,
    "returncode": 0
}