{
    "basename": "asr-interface_05-5639d22",
    "cmd": "lfortran --show-asr --no-color {infile} -o {outfile}",
    "infile": "tests/../integration_tests/interface_05.f90",
    "infile_hash": "a6509198926e454d1aa09c90a70bf6760452f8ed5923cebde47a166f",
    "outfile": null,
    "outfile_hash": null,
    "stdout": "asr-interface_05-5639d22.stdout",
    "stdout_hash": "65e29c17f8931c0f5f145d627d806719a286a4b1575944403eb1fa5d",
    "stderr": null,
    "stderr_hash": null,
    "returncode": 0
}