{
    "basename": "asr-modules_01-3535389",
    "cmd": "lfortran --show-asr --no-color {infile} -o {outfile}",
    "infile": "tests/../integration_tests/modules_01.f90",
    "infile_hash": "17c761eb72726e0dde59f2b21f98f2402d783613834e927c49047534",
    "outfile": null,
    "outfile_hash": null,
    "stdout": "asr-modules_01-3535389.stdout",
    "stdout_hash": "35b0ad8a5fc9eef7edf997136708187185552ff41e66b7805b0757b6",
    "stderr": null,
    "stderr_hash": null,
    "returncode": 0
}