{
    "basename": "asr-bits_01-2906c1d",
    "cmd": "lfortran --show-asr --no-color {infile} -o {outfile}",
    "infile": "tests/../integration_tests/bits_01.f90",
    "infile_hash": "4fdd6c630a9f2559417372a42cca1dc1c98fa7af4e4a5442ebf9ca96",
    "outfile": null,
    "outfile_hash": null,
    "stdout": "asr-bits_01-2906c1d.stdout",
    "stdout_hash": "ad7663db3eecbd6d1cb1220978f2139d05fdfc39e490576266e7f54e",
    "stderr": null,
    "stderr_hash": null,
    "returncode": 0
}