{
    "basename": "asr-fma-8bc0756",
    "cmd": "lfortran --show-asr --no-color {infile} -o {outfile}",
    "infile": "tests/../integration_tests/fma.f90",
    "infile_hash": "59fa49468c6dcd7b7bfbb4bfab840e6ec357824e0618eed22308d5f1",
    "outfile": null,
    "outfile_hash": null,
    "stdout": "asr-fma-8bc0756.stdout",
    "stdout_hash": "2076cbd5f4e2975373147b8c8d5358699e203523291c517c03bbf387",
    "stderr": null,
    "stderr_hash": null,
    "returncode": 0
}