{
    "basename": "asr-intrinsics_08-9988b1f",
    "cmd": "lfortran --show-asr --no-color {infile} -o {outfile}",
    "infile": "tests/../integration_tests/intrinsics_08.f90",
    "infile_hash": "cf340bcd7898a8a082647dcd2f5bdd123faa7de9b36f4ac6f31ab4c2",
    "outfile": null,
    "outfile_hash": null,
    "stdout": "asr-intrinsics_08-9988b1f.stdout",
    "stdout_hash": "aa40895f8d5601dd4973ce6d2648dc49329a3abd439df7132208b188",
    "stderr": null,
    "stderr_hash": null,
    "returncode": 0
}