{
    "basename": "asr-derived_types_08-3680946",
    "cmd": "lfortran --show-asr --no-color {infile} -o {outfile}",
    "infile": "tests/../integration_tests/derived_types_08.f90",
    "infile_hash": "4a51a56bca5f067223957705f8a8642e29e5decf9059e675b67d5df0",
    "outfile": null,
    "outfile_hash": null,
    "stdout": "asr-derived_types_08-3680946.stdout",
    "stdout_hash": "dcafd20da30e0d0f9740b807800d19740182a30762343626a561b100",
    "stderr": null,
    "stderr_hash": null,
    "returncode": 0
}