{
    "basename": "asr-functions_08-23f422a",
    "cmd": "lfortran --show-asr --no-color {infile} -o {outfile}",
    "infile": "tests/../integration_tests/functions_08.f90",
    "infile_hash": "6f22c108fdac79d99083d736cc3c4a1f3091aa84dde7732f33c833f7",
    "outfile": null,
    "outfile_hash": null,
    "stdout": "asr-functions_08-23f422a.stdout",
    "stdout_hash": "0c33bf318b43e06ba96b307fcaefcc5d50f9602337ffc76b911f1049",
    "stderr": null,
    "stderr_hash": null,
    "returncode": 0
}