{
    "basename": "asr_preprocess-preprocessor12-94ccea0",
    "cmd": "lfortran --cpp --show-asr --no-color {infile} -o {outfile}",
    "infile": "tests/preprocessor12.f90",
    "infile_hash": "b445441cd8d1932e9ebd830003869fd98c73c8153b90a1fa71029316",
    "outfile": null,
    "outfile_hash": null,
    "stdout": "asr_preprocess-preprocessor12-94ccea0.stdout",
    "stdout_hash": "713f75e5523e4f7eef10acf19e895a8e794b3a058d57d585be16b23b",
    "stderr": null,
    "stderr_hash": null,
    "returncode": 0
}