#include <iostream>
#include <string>
#include <vector>
#include <cassert>
#include <cmath>
#include <Kokkos_Core.hpp>
#include <lfortran_intrinsics.h>

template <typename T>
Kokkos::View<T*> from_std_vector(const std::vector<T> &v)
{
    Kokkos::View<T*> r("r", v.size());
    for (size_t i=0; i < v.size(); i++) {
        r(i) = v[i];
    }
    return r;
}

void move_alloc(int &from, int &to)
{
}

namespace {
int mysum(const Kokkos::View<const int*> &a)
{
    int i;
    int r;
    r = 0;
    for (i=1; i<=a.extent(0); i++) {
        r = r + a[i-1];
    }
    return r;
}


void main2() {
        int i;
        int s;
        Kokkos::View<int[10]> x("x");
        for (i=1; i<=x.extent(0); i++) {
            x[i-1] = i;
        }
        s = mysum(x);
        std::cout << s << std::endl;
        if (s != 55) {
            std::cerr << "ERROR STOP" << std::endl;
            exit(1);
        }
}

}
int main(int argc, char* argv[])
{
    Kokkos::initialize(argc, argv);
    main2();
    Kokkos::finalize();
    return 0;
}
