{
    "basename": "llvm-arrays_04_func-2aa342e",
    "cmd": "lfortran --no-color --show-llvm {infile} -o {outfile}",
    "infile": "tests/../integration_tests/arrays_04_func.f90",
    "infile_hash": "50eb699e803e7dace8da286ee49cdb7381ebe3141bff17ca374f1f02",
    "outfile": null,
    "outfile_hash": null,
    "stdout": "llvm-arrays_04_func-2aa342e.stdout",
    "stdout_hash": "d8194c4535b10b5d17c7c763c77ffd5874bb4b59d69912b9fe86cf17",
    "stderr": null,
    "stderr_hash": null,
    "returncode": 0
}